"새주소","지번주소","좌표정보","좌표정보","테마코드","콘텐츠 코드","언어셋(KOR : 국문, ENG : 영문, JP : 일문, CHA : 중문-간체, CHB : 중문-번체)","콘텐츠 명","시도명(텍스트)","구명","동명","산지여부","주 번지","부 번지","기타주소","전화번호","상세정보 값 1","상세정보 값 2","상세정보 값 3","상세정보 값 4","상세정보 값 5","상세정보 값 6","상세정보 값 7","상세정보 값 8","상세정보 값 9","상세정보 값 10","상세정보 값 11","상세정보 값 12","상세정보 값 13","상세정보 값 14","상세정보 값 15","상세정보 값 16","상세정보 값 17","상세정보 값 18","상세정보 값 19","상세정보 값 20","상세정보 이름 1","상세정보 이름 2","상세정보 이름 3","상세정보 이름 4","상세정보 이름 5","상세정보 이름 6","상세정보 이름 7","상세정보 이름 8","상세정보 이름 9","상세정보 이름 10","상세정보 이름 11","상세정보 이름 12","상세정보 이름 13","상세정보 이름 14","상세정보 이름 15","상세정보 이름 16","상세정보 이름 17","상세정보 이름 18","상세정보 이름 19","상세정보 이름 20","좌표데이터","좌표 타입 (1:Point 3:Polyline 4:MultiPolyline 5:Polygon 6:MultiPolygon 8:multiPoint)","선 두께 1~10","테마 선 색상","키워드","등록일","수정일"
"퇴계로26가길 6","","126.991357300","37.558813800","100376","human_0057","KOR","서울종합방재센터-옛 중앙정보부 제6별관","","중구","","","","","","","서울시 중구 퇴계로26가길 6","옛 중앙정보부(국가안전기획부)의 수사와 행정기능을 담당하던 사무공간과 함께 유치장으로도 사용되었던 건물이다","","","","","","","","","","","","","","","","","","","상세 주소","앞으로의 변화가 기다려지는 남산의 그곳","","","","","","","","","","","","","","","","","","","","1","4","#00FF00","","2016-11-21 15:30:31.0","2017-04-27 10:51:34.0"
"양화로 182","","126.925592500","37.557876900","100376","human_0008","KOR","옛 두리반 칼국수집","","마포구","","","","","","","서울시 마포구 동교동 167-31번지","2호선 전철 홍대입구역 칼국수집<두리반>은 문화예술인들과 시민들이 연대하여 철거를 막아낸 상징적공간이다. 용산과 전혀 다른 방식의 철거 저항이 홍대 앞에서 시작되었다. 홍대역에 공항철도가 들어선다는 이유로 두리반은 소멸의 위기에 처하게 된다. 그들 부부에게 내민 보상금은 이사비용 300만원 가량이 전부였다. 터무니없는 보상금과 강제철거라는 벼랑끝에서 달리 선택지가 없었던 부부는 결국 두리반에서 농성을 시작한다. 시민들과 연대한 537일간 농성으로 영업재개합의서와 2억5천만원 상당의 배상금을 받았다.","","","","","","","","","","","","","","","","","","","상세 주소","문화예술인과 시민이 연대하여 철거를 막아낸 상징적 공간","","","","","","","","","","","","","","","","","","","","1","4","#8B00FF","","2016-11-21 15:30:29.0","2017-04-27 10:03:20.0"
"와우산로24길 49","","126.927330000","37.551843000","100376","human_0009","KOR","인권운동사랑방","","마포구","","","","","","","서울시 마포구 와우산로 24길 49","1993년 3월에 창립한 최초의 전문적 인권단체로 국내 최초의 인권전문팩스신문 '인권하루소식' 창간 1996년 인권영화제 개최 1999년 국가인권위원회설립을 위한 활동 인권연구소 창 등을 비롯해 다양한 인권활동을 하고 있다.","","","","","","","","","","","","","","","","","","","상세 주소","인권운동의 대중화","","","","","","","","","","","","","","","","","","","","1","4","#8B00FF","","2016-11-21 15:30:29.0","2017-04-27 10:05:17.0"
"소파로 148-10","","126.988746500","37.559702500","100376","human_0058","KOR","남산 제2청사-옛 중앙정보부 6국","","중구","","","","","","","서울시 중구 소파로 148-10","옛 중앙정보부(국가안전기획부)의 국내정치사찰 학원사찰 노동자 사찰 등을 담당하던 6국이 있던 건물이다.","","","","","","","","","","","","","","","","","","","상세 주소","30여 년 만에 회복한 명예","","","","","","","","","","","","","","","","","","","","1","4","#00FF00","","2016-11-21 15:30:31.0","2017-04-27 10:52:05.0"
"을지로 66","","126.984968900","37.565507300","100376","human_0012","KOR","외환은행 본점","","중구","","","","","","","서울시 중구 을지로 66","1960년 3월 부정선거에 반대하는 시위대를 향해 발포하는 등 유혈사태가 발생한 장소이다. 이 내무부 건물이 동양척식주식회사 본부로 일제 식민지 시절 토지조사사업을 수행하면서 농민들의 토지를 수탈했던 이 곳은 민주주의를 수호하는 젊은이들의 생명을 무참히 앗아간 현장이 되었다.","","","","","","","","","","","","","","","","","","","상세 주소","민중의 힘으로 민주주의의 씨앗을 뿌리다","","","","","","","","","","","","","","","","","","","","1","4","#FF0000","","2016-11-21 15:30:29.0","2017-04-19 11:14:04.0"
"새문안로 17","","126.967720500","37.567506700","100376","human_0014","KOR","4.19혁명기념도서관","","종로구","","","","","","","서울시 종로구 새문안로 17","1960년 4월 부정선거에 항의하는 시위로 이승만은 대통령 하야를 발표하며 독재가 막을 내리게 된다. 당시 부통령이던 이기붕이 사망한 이후 '서대문 경무대'로 불리던 이기붕의 집은 4.19혁명 희생자 유족들에게 무상으로 대여 1964년 9월 4.19기념사설도서관으로 재탄생했다.","","","","","","","","","","","","","","","","","","","상세 주소","독재에 대면해 자유와 정의를 외치다","","","","","","","","","","","","","","","","","","","","1","4","#FF0000","","2016-11-21 15:30:29.0","2017-04-19 11:13:39.0"
"종로 60-1","","126.984181300","37.569894800","100376","human_0015","KOR","옛 사상계 터","","종로구","","","","","","","서울시 종로구 종로 60-1","1960년 4.19민주화운동의 원동력 가운데 큰 부분을 차지했다는 평가를 받아왔으며 1970년 5월 김지하의 '오적'시를 게재한 것이 문제되어 당국의 폐간 처분을 받아 통권 205호로 종간했다. <사상계>는 계몽적 민주주의와 자유민주주의에 기초를 둔 이념지향적인 면에서 한국잡지사에서 높이 평가받고 있다.","","","","","","","","","","","","","","","","","","","상세 주소","4.19 혁명의 첫 번째 불씨 사상계","","","","","","","","","","","","","","","","","","","","1","4","#FF0000","","2016-11-21 15:30:30.0","2017-04-27 10:05:55.0"
"세종대로19길 16","","126.975702900","37.566948800","100376","human_0016","KOR","대한성공회 서울주교좌 성당","","중구","","","","","","","서울시 중구 세종대로 19길 16","1987년 6월 10일 4.13호헌조치 철회 및 대통령 직선제로의 개헌을 위해 조직된 민주 헌법쟁취 국민운동본부가 '박종철군 고문살인 은폐조작 규탄 및 호헌철폐 국민대회'를 개최한 장소이다.","","","","","","","","","","","","","","","","","","","상세 주소","6.10 민주항쟁의 신호탄이 울린 곳","","","","","","","","","","","","","","","","","","","","1","4","#0000FF","","2016-11-21 15:30:30.0","2017-04-27 10:06:25.0"
"서울특별시 중구 명동길 74","서울특별시 중구 명동2가 1-1","126.987248806","37.563276925","100376","human_0017","KOR","명동성당","","중구","명동2가","","1-1","","","","서울시 중구 명동3길 21","1987년 6월 10일 '박종철군고문살인은폐조작규탄및호헌철폐국민대회' 가두시위에  참가했던 학생 시민 760여명이 모여 6월 15일까지 6일간 4.13호헌조치철폐 등을 요구하며 농성을 벌였던 장소로 6일 동안의 농성을 통해 국민의 관심을 집중시키고 6.10대회의 열기를 이어나갔다.","","","","","","","","","","","","","","","","","","","상세 주소","6일간 농성이 이어진 민주화 성지","","","","","","","","","","","","","","","","","","","","1","4","#FF7F00","","2016-11-21 15:30:30.0","2018-03-29 14:00:19.0"
"명동13길 27-5","","126.986690900","37.565618400","100376","human_0019","KOR","향린교회","","중구","","","","","","","서울시 중구 명동13길 27-5","1987년 5월 27일 4.13 호헌조치 철회 및 대통령직선제로의 개헌을 위해 재야단체들이 모여 조직한 '민주헌법쟁취 국민 운동본부' 발기대회가 열렸던 장소로 발기대회 이후 국민이 운동본부를 중심으로 6월 항쟁이 본격적으로 시작되었다.","","","","","","","","","","","","","","","","","","","상세 주소","민주헌법쟁취국민운동본부가 시작된 곳","","","","","","","","","","","","","","","","","","","","1","4","#FF7F00","","2016-11-21 15:30:30.0","2017-04-27 10:08:08.0"
"한강대로 405","","126.971624700","37.555398100","100376","human_0021","KOR","서울역 광장","","중구","","","","","","","서울시 용산구 한강대로 405","1980년 서울의 봄 당시 5월 15일 35개 대학 6~7만여 명의 학생들이 모여 계엄해제 이원집정부제철회 언론자유보장 등을 요구하는 시위를 벌였던 장소이며 소위 '5.15서울역회군'으로 유명하다. 1987년 6월 26일 국민평화대행진 시위가 전개되기도 하였다. 경제적 빈곤으로 인해 생활환경이 제일 나쁜 빈민계급인 노숙자들의 주요 거처이기도 하다.","","","","","","","","","","","","","","","","","","","상세 주소","6월 항쟁 중 최대 규모의 대행진","","","","","","","","","","","","","","","","","","","","1","4","#FF7F00","","2016-11-21 15:30:30.0","2017-04-27 10:08:37.0"
"성균관로3길 26","","126.996754900","37.583158100","100376","human_0036","KOR","민가협 (민주화실천가족운동협의회)","","종로구","","","","","","","1985년 12월 12일 창립되었고 민가협이 창립되던 1985년 군사독재정권 하에서 수많은 청년 학생 노동자 민주인사들이 구금되어 있었고 안기부 등 수사기관 교도소에서 고문 등 인권유린이 심각했기에 이러한 인권침해와 맞서 싸우고 양심수들을 구조하기 위해 가족들의 모임이 만들어진 것이다.?","","","","","","","","","","","","","","","","","","","","상세설명","","","","","","","","","","","","","","","","","","","","","1","4","#0000FF","","2016-11-21 15:30:30.0","2016-11-21 15:30:30.0"
"벚꽃로44길 17","","126.883621800","37.482761000","100376","human_0039","KOR","구로공단노동자 생활체험관 (순이의 집)","","금천구","","","","","","","서울시 금천구 벚꽃로44길 17","금천구가 구로공단 여성노동자들을 기념하기 위하여 마련한 전시? 체험관으로 닭장집(벌집)을 재현하는 등 당시 여공들의 생활과 문화를 보여주는 공간이다.","","","","","","","","","","","","","","","","","","","상세주소","2평의 벌집","","","","","","","","","","","","","","","","","","","","1","4","#0000FF","","2016-11-21 15:30:30.0","2017-04-27 10:09:12.0"
"남부순환로105라길 29-7","","126.890500500","37.481023700","100376","human_0040","KOR","성프란치스꼬 장애인 종합복지관 (옛 선화기숙사)","","구로구","","","","","","","서울시 구로구 남부순환로105라길 29-7","수녀원이 구로공단 근로여성들을 위한 여성 전용 기숙사로 운영하면서 여성노동자의 인권 수호 현장이 되었던 곳이다. 지금은 국내유일의 여성장애인 전문복지관인 성프란치스꼬 장애인종합복지관으로 변경되었다","","","","","","","","","","","","","","","","","","","상세주소","수녀원에서 운영한 여성 노동자 전용 기숙사","","","","","","","","","","","","","","","","","","","","1","4","#0000FF","","2016-11-21 15:30:30.0","2017-04-27 10:09:46.0"
"디지털로 212","","126.889941000","37.479256000","100376","human_0041","KOR","디지털단지오거리","","금천구","","","","","","","서울시 금천구 가산동 127-34","1985년 임금협상 과정에서 벌어진 파업에 대한 사측의 고소로 대우어패럴 노조간부가 구속되는 사건이 발생하였고 이에 항의하기 위해 대우어패럴 및 인근공장의 노동자들이 구로동맹파업을 실시하였는데 당시 공장에서 농성하는 이들을 지지하기 위해 노동자 학생 등이 가두 시위를 벌이던 장소이다.","","","","","","","","","","","","","","","","","","","상세주소","항의 시위가 끝없이 열리던 거리","","","","","","","","","","","","","","","","","","","","1","4","#0000FF","","2016-11-21 15:30:30.0","2017-04-27 10:10:14.0"
"디지털로10길 9","","126.889143800","37.477356400","100376","human_0042","KOR","구로 옛 대우어패럴 (현대아웃렛)","","금천구","","","","","","","서울시 디지털로10길 9","1985년 구로동맹 파업이 처음으로 시작된 장소이며 구로동맹 파업에 참여하였던 회사 중 대우어패럴이 사용하던 건물이다.","","","","","","","","","","","","","","","","","","","상세주소","최초의 동맹파업이 시작되다","","","","","","","","","","","","","","","","","","","","1","4","#0000FF","","2016-11-21 15:30:30.0","2017-04-27 10:10:46.0"
"디지털로12길 21","","126.889882200","37.477730900","100376","human_0043","KOR","옛 구로노동자 문학회와 구로노동상담소","","금천구","","","","","","","서울시 디지털로12길 21","구로구 가리봉1동에 있었던 노동자문학단체로 1988년 6월25일 실천문학사의 재정지원과 전태일 기념사업회 등의 도움으로 구로노동자문학회가 설립하였고 2006년 2월 25일 공식적인 활동을 중단하였다. 노동조합 지원 상담과 노동자들에 대한 교육사업을 축으로 구로지역의 대표적인 노동관련단체로 자리잡았다.","","","","","","","","","","","","","","","","","","","상세주소","노동자들을 돕는 민간 단체들","","","","","","","","","","","","","","","","","","","","1","4","#0000FF","","2016-11-21 15:30:30.0","2017-04-07 10:22:09.0"
"가산로 149","","126.890358300","37.478486000","100376","human_0044","KOR","모세미용실","","금천구","","","","","","","서울시 금천구 가산동 140-8","1986년 3월 19일 서울노동운동연합(서노련) 활동가들이 가리봉5거리 구로공단 앞 2층 건물 모세미용실을 점거하여 '생활임금 쟁취' 등을 요구하며 농성과 가두투쟁을 전개한 곳이다.","","","","","","","","","","","","","","","","","","","상세주소","공장 밖으로 나온 노동운동","","","","","","","","","","","","","","","","","","","","1","4","#0000FF","","2016-11-21 15:30:31.0","2017-04-07 09:08:25.0"
"가산디지털2로 45","","126.881680500","37.472291500","100376","human_0045","KOR","신흥정밀","","금천구","","","","","","","서울시 금천구 가산동 554-2","1986년 3월 17일 신흥정밀 옥상에서 이 공장 근로자인 박영진이 임금인상과 작업 조건개선을 요구하며 농성하던 중 경찰과 대치 끝에 분신 3월 18일에 사망하였다.","","","","","","","","","","","","","","","","","","","상세주소","목숨과 맞바꾼 임금인상","","","","","","","","","","","","","","","","","","","","1","4","#0000FF","","2016-11-21 15:30:31.0","2017-04-07 09:07:48.0"
"청계천로 274","","127.008035601","37.569424618","100376","human_0053","KOR","평화시장","","중구","","","","","","","서울시 중구 청계천로 274","1962년 개설한 국내 대표 의류도매시장 중 하나로 전태일이 1965년 삼일사 견습공을 시작으로 1970년까지 미싱사 재단보조 재단사 등으로 일했던 곳이다. 바보회 삼동친목회를 조직하여 시장 내 노동환경실태조사를 진행하고 노동현실을 세상에 알렸다.","","","","","","","","","","","","","","","","","","","상세 주소","1.6미터 높이의 다락방","","","","","","","","","","","","","","","","","","","","1","4","#6600FF","","2016-11-21 15:30:31.0","2017-04-27 10:11:21.0"
"창신길 39-10","","127.010063600","37.573526700","100376","human_0054","KOR","전태일재단","","종로구","","","","","","","서울시 종로구 창신길 39-10","평화시장의 노동환경을 알리기 위해 자신을 희생한 전태일의 정신을 기리고 실천하기 위해 설립된 재단이다. 현재는 노동운동 자료 수집 및 문화와 교육 사업 전태일 노동상과 문학상 시상 사업을 이어가고 있다.","","","","","","","","","","","","","","","","","","","상세 주소","노동자들의 쉼터","","","","","","","","","","","","","","","","","","","","1","4","#6600FF","","2016-11-21 15:30:31.0","2017-04-27 10:11:58.0"
"창신2길 12-7","","127.010110400","37.573066600","100376","human_0055","KOR","한울삶(유가협)","","종로구","","","","","","","서울시 종로구 창신2길 12-7","민주화운동 과정에서 목숨을 잃은 자녀의 부모들이 모인 전국민족민주유가족협의회의 본부이자 삶터이다.","","","","","","","","","","","","","","","","","","","상세 주소","민주화운동에서 가족을 잃은 전국민족주유가족협의회","","","","","","","","","","","","","","","","","","","","1","4","#6600FF","","2016-11-21 15:30:31.0","2017-04-27 10:51:04.0"
"정동길 26","","126.970636900","37.566201400","100376","human_0001","KOR","이화학당(이화여고100주년기념관)","","중구","","","","","","","서울시 중구 정동길 26","1886년 해외 여성선교회에서 파견된 메리F.스크랜튼이 서울 황화방 지금의 중구 정동에 설립한 한국 최초의 사립여성교육기관이다. 1887년 2월에는 고종황제가 외아문을 통해 '이화학당'이라는 교명과 현판을 하사하여 공식적인 인정을 받은 최초의 근대식 여학교이다.","","","","","","","","","","","","","","","","","","","상세 주소","우리나라 최초의 근대식 여학교","","","","","","","","","","","","","","","","","","","","1","","#FFFF00","","2016-11-21 15:30:29.0","2018-07-05 17:52:13.0"
"율곡로2길 22","","126.980080200","37.575117100","100376","human_0002","KOR","위안부 소녀상","","종로구","","","","","","","서울시 중구 율곡로2길 22","","","","","","","","","","","","","","","","","","","","상세 주소","","","","","","","","","","","","","","","","","","","","","1","","#FFFF00","","2016-11-21 15:30:29.0","2018-07-05 17:55:02.0"
"우정국로 30-28","","126.983767200","37.571432700","100376","human_0004","KOR","근우회 터","","종로구","","","","","","","서울시 종로구 우정국로 30-28","1927년 5월 우리나라 최초의 전국적인 여성운동 단체로 사회적 법률적 차별 철폐 등 구체적인 운동 방향을 가지고 활동했으며 야학과 강연회를 통해 여성의 의식을 계몽하는데 일조하였다. 현재 근우회관 자리는 재개발이 진행되고 있어 그 터만 확인할 수 있다.","","","","","","","","","","","","","","","","","","","상세 주소","사상을 넘어 연대한 우리나라 최초의 여성운동","","","","","","","","","","","","","","","","","","","","1","","#FFFF00","","2016-11-21 15:30:29.0","2018-07-05 17:59:45.0"
"월드컵로25길 190","","126.896966348","37.556758517","100376","human_0006","KOR","망원유수지체육공원","","마포구","","","","","","","서울시 마포구 월드컵로25길 190","1984년 9월 서울 대홍수때 망원동 유수지의 배수갑문이 무너져 한강물이 역류해 일대 5천여 가구가 물에 잠긴 사건이 발생했다. 조영래 변호사와 2400여 가구 수재민들이 소송을 맡아 3년의 법정투쟁 끝에 승소했으며 이 소송은 우리나라 사법사상 최초의 주민집단소송으로 승소한 사건으로 이 소송을 통해 시민 스스로의 권리와 주권을 되찾는 시민권리의식이 높아지게 되었다.","","","","","","","","","","","","","","","","","","","상세 주소","우리나라 공익소송의 시초","","","","","","","","","","","","","","","","","","","","1","4","#8B00FF","","2016-11-21 15:30:29.0","2017-04-27 10:02:21.0"
"월드컵북로11길 20","","126.914847100","37.560053700","100376","human_0007","KOR","전쟁과 여성 인권박물관","","마포구","","","","","","","서울시 마포구 월드컵북로11길 20","전쟁과여성 인권박물관은 사단법인 한국정신대문제대책협의회에서 운영하는 곳이며 일제시대 때 일본군 위안부 생존자들이 겪었던 역사를 기억하고 교육하며 위안부 문제를 해결하기 위해 활동하는 공간이다.","","","","","","","","","","","","","","","","","","","상세 주소","시민의 성금으로 건립된 박물관","","","","","","","","","","","","","","","","","","","","1","4","#8B00FF","","2016-11-21 15:30:29.0","2017-04-27 10:02:47.0"
"","","126.992154000","37.556703000","100376","human_0059","KOR","소릿길","","","","","","","","","서울시 중구 퇴계로26가길 일대","옛 중앙정보부(국가안전기획부) 제5별관으로 이어지는 터널로 직원들에 의해 연행된 이들은 눈을 가린 채로 끌려와 인권을 유린 당한 장소이다. 현재까지 보존된 이 터널은 지난 시절의 뼈아픈 과오와 상처를 일깨워주는 공간이다.","","","","","","","","","","","","","","","","","","","상세 주소","소리로 전하는 고문의 무게","","","","","","","","","","","","","","","","","","","","1","","#00FF00","","2016-11-21 15:30:31.0","2018-07-05 15:29:07.0"
"퇴계로26가길 6","","126.991024000","37.558452700","100376","human_0060","KOR","서울유스호스텔-옛 안기부 본관","","중구","","","","","","","서울시 중구 퇴계로26가길 6","옛 중앙정보부(국가안전기획부) 본관으로 사용되었던 건물이다.","","","","","","","","","","","","","","","","","","","상세 주소","거대 조직에 의해 스러진 하나의 인권","","","","","","","","","","","","","","","","","","","","1","","#00FF00","","2016-11-21 15:30:31.0","2018-07-05 15:25:14.0"
"퇴계로26가길 6","","126.989929000","37.559387000","100376","human_0061","KOR","주자파출소 터","","중구","","","","","","","서울시 중구 퇴계로26가길 6","옛 중앙정보부(국가안전기획부)로 끌려간 사람에 대한 소식을 접하려면 이곳에 접수하고 하염없이 기다려야 했다. 흔히 '면회소'라고 불렸지만 면회는 거의 이뤄지지 않았다.","","","","","","","","","","","","","","","","","","","상세 주소","통곡의 벽을 마주하는 자리","","","","","","","","","","","","","","","","","","","","1","","#00FF00","","2016-11-21 15:30:31.0","2018-07-05 15:24:14.0"
"퇴계로26가길 6","","126.990722222","37.558944444","100376","human_0062","KOR","안기부 제1별관 터","","중구","","","","","","","옛 중앙정보부(국가안전기획부)에서 통신과 도청 감청을 수행하는 건물이 있던 자리로 현재는 철거되었다.","","","","","","","","","","","","","","","","","","","","폭발의 흔적 아래 다시 돋아나는 희망","","","","","","","","","","","","","","","","","","","","","1","","#00FF00","","2016-11-21 15:30:31.0","2018-07-05 17:47:51.0"
"삼일대로 231","","126.992240900","37.555594400","100376","human_0063","KOR","남산제1청사-옛 안기부 제5별관","","중구","","","","","","","서울시 중구 삼일대로 231","옛 중앙정보부(국가안전기획부)의 간첩혐의 등을 수사하던 대공수사국이 있던 건물이다.","","","","","","","","","","","","","","","","","","","상세 주소","조작 간첩의 진실을 새로 쓰다","","","","","","","","","","","","","","","","","","","","1","4","#00FF00","","2016-11-21 15:30:31.0","2018-03-29 13:59:09.0"
"청계천로 274","중구 을지로6가 17-442","127.006637900","37.569495900","100376","human_0064","KOR","전태일 동상과 다리","","중구","을지로6가","","17","442","","","1970년 11월 13일 평화시장 앞에서 전태일이 근로기준법 준수를 요구하며 분신항거한 장소로 2000년대 주변거리와 다리를 '전태일 거리 및 다리'로 명명하고 기념상과 표석이 설치되었다","","","","","","","","","","","","","","","","","","","","전태일 동상과 다리","","","","","","","","","","","","","","","","","","","","","1","","#0000FF","","2017-05-30 16:39:25.0","2018-07-05 14:00:11.0"